{
	"IcoMoonType": "selection",
	"icons": [
		{
			"icon": {
				"paths": [
					"M744 212.6h-84.4c-66 0-78.4 31.8-78.4 77.6v101.8h157.4l-21 159.4h-136.4v408.6h-164.4v-408.8h-136.8v-159.2h137v-117.4c0-136.2 83.2-210.6 204.6-210.6 58 0 108 4.4 122.4 6.4v142.2z"
				],
				"attrs": [
					{
						"visibility": false
					}
				],
				"grid": 0,
				"tags": [
					"facebook"
				]
			},
			"attrs": [
				{
					"visibility": false
				}
			],
			"properties": {
				"order": 1,
				"id": 6,
				"prevSize": 32,
				"code": 58880,
				"name": "facebook"
			},
			"setIdx": 0,
			"iconIdx": 0
		},
		{
			"icon": {
				"paths": [
					"M631 739.2c0 32.8-9.6 65.2-25.8 93.2-55.6 94.2-171.2 127.6-274 127.6-80.8 0-180.4-21-225.2-96.4-13-21-20-45.8-20-70.6 0-60.8 37.6-111.4 87.8-142.6 63-39.4 144.8-49 217.6-53.8-18.8-24.8-34-46.8-34-79.2 0-17.2 4.8-30.6 11.4-45.8-12.4 1-24.2 2.2-36.6 2.2-105 0-189-76.4-189-183.6 0-59.2 28-117.4 72.8-156.2 58.2-50 140.6-70 215.4-70h225.2l-74.6 47.4h-70.6c50 42.6 80.8 90 80.8 157.8 0 139.4-127.6 155-127.6 223.4 0 71 166.4 94.8 166.4 246.6zM554.6 785c0-72.6-72.2-116.8-124.4-154.6-8.6-1-17.2-1-26-1-87.8 0-218.2 28-218.2 139 0 105 113.6 142.8 201 142.8 79.8-0.2 167.6-33.6 167.6-126.2zM463.6 408.6c22-23.8 28.6-53.8 28.6-85.6 0-79.8-46.8-214.8-143.8-214.8-30.2 0-61.4 15-79.6 38.8-19.4 24.2-25.4 56-25.4 86.2 0 80.8 45.8 207.8 142.8 207.8 26.6 0 58.4-13 77.4-32.4zM938 439.4v58.2h-114.8v118h-56.6v-118h-114.2v-58.2h114.2v-116.8h56.6v116.8h114.8z"
				],
				"attrs": [
					{
						"visibility": false
					}
				],
				"grid": 0,
				"tags": [
					"google-plus"
				]
			},
			"attrs": [
				{
					"visibility": false
				}
			],
			"properties": {
				"order": 2,
				"id": 5,
				"prevSize": 32,
				"code": 58881,
				"name": "google-plus"
			},
			"setIdx": 0,
			"iconIdx": 1
		},
		{
			"icon": {
				"paths": [
					"M906 64l-71.6 805.2-323.6 90.8-321.2-90.8-71.6-805.2h788zM759.4 228.6h-494.8l26.4 299h342.6l-12.4 127.6-110.2 29.6-109.6-29.6-7.4-78.4h-98l12.2 155.6 202.6 56h2.2v-0.4l201-55.4 28-304.6h-360.4l-8.4-101.4h377.2l9-98z"
				],
				"attrs": [
					{
						"visibility": false
					}
				],
				"grid": 0,
				"tags": [
					"html5"
				]
			},
			"attrs": [
				{
					"visibility": false
				}
			],
			"properties": {
				"order": 3,
				"id": 4,
				"prevSize": 32,
				"code": 58882,
				"name": "html5"
			},
			"setIdx": 0,
			"iconIdx": 2
		},
		{
			"icon": {
				"paths": [
					"M171.4 283.4h-1.2c-64.8 0-106.2-44.2-106.2-99.8-0-56.4 43.2-99.6 108.6-99.6 66 0 106.8 43.2 107.4 99.8 0.4 55.4-41.6 99.6-108.6 99.6zM267.6 940h-192.6v-577.8h192.6v577.8zM960 940h-192v-309c0-77.6-28-130.6-97.4-130.6-53 0-84.6 35.6-98.6 70-4.6 12.8-6.4 29.8-6.4 47.2v322.4h-192c2.4-523.6 0-577.8 0-577.8h192v84h-1.2c25-39.6 70.6-97.4 174.4-97.4 126.6 0 221.2 82.8 221.2 260.2v331z"
				],
				"attrs": [
					{
						"visibility": false
					}
				],
				"grid": 0,
				"tags": [
					"linkedin"
				]
			},
			"attrs": [
				{
					"visibility": false
				}
			],
			"properties": {
				"order": 4,
				"id": 3,
				"prevSize": 32,
				"code": 58883,
				"name": "linkedin"
			},
			"setIdx": 0,
			"iconIdx": 3
		},
		{
			"icon": {
				"paths": [
					"M896 336v576c0 26.4-21.6 48-48 48h-672c-26.4 0-48-21.6-48-48v-800c0-26.4 21.6-48 48-48h448c26.4 0 63.6 15.6 82 34l156 156c18.4 18.4 34 55.6 34 82zM832 384h-208c-26.4 0-48-21.6-48-48v-208h-384v768h640v-512zM256 480c0-53 43-96 96-96s96 43 96 96-43 96-96 96-96-43-96-96zM768 832h-512v-96l96-96 64 64 192-192 160 160v160zM640 320h188c-3-8.4-7.4-17-11-20.6l-156.6-156.6c-3.4-3.4-12-8-20.6-11v188.2z"
				],
				"attrs": [
					{
						"visibility": false
					}
				],
				"grid": 0,
				"tags": [
					"picture"
				]
			},
			"attrs": [
				{
					"visibility": false
				}
			],
			"properties": {
				"order": 5,
				"id": 2,
				"prevSize": 32,
				"code": 58884,
				"name": "picture"
			},
			"setIdx": 0,
			"iconIdx": 4
		},
		{
			"icon": {
				"paths": [
					"M767.6 940.6c-43 18-86.4 23.6-130.8 16.2-37-6.4-71-20.8-101.4-43.4-52.2-39-83.2-90.8-92.4-155.2-9.6-64.6 5-123 43.4-175 12-16.4 23.2-29 33.2-38 8.2-6.2 36-25.4 83-57 46.6-32.4 93-64.6 139.2-96.6 7.6-5.4 14.6-12.8 21-21.2 19-25.8 25.4-54.6 19.6-86-5.6-31.6-21-56.4-46-75-25.4-18.8-53.8-26.2-86-22.2s-57.2 18.4-75.6 43c-5.2 7-20.4 43-45.8 109.4-31 82-47 123.6-47.6 124.4-6 14.6-14.6 29.2-25.2 43.8-32 43.2-74 68.4-126.4 75-52.2 6.8-97.8-4-136.4-32.6-42-31.4-67.4-72.8-75-124.2-7.8-51 4-97.6 35-139.2 42-56 99.8-80.4 173.8-73.4-6.8 39.2-13.6 78.6-20.2 118-2.2 1-4 1.8-5.6 2-19.2-0.6-35.4 7.8-48.4 25.4-10.8 14.4-15.2 30.6-12.6 48.4 2.2 17.8 10.8 32 25.2 42.8 14 10.4 30 13.8 48.4 10.6s32.2-11 41.8-23.8c0.4-0.4 10.4-25.4 30.2-74.6 8.4-22.4 22-57.4 40.6-105 7-18.6 14-37 21.4-56 5.2-12.2 13.8-26.8 26.2-43.2 39.4-52.8 92-83.2 157.2-91.4 65.4-8.6 124.2 6.8 177.2 46.2 53.4 39.6 85.4 92 96 157.4 10.4 65.6-3.2 124.6-41.2 176.8-12.6 17-27.2 32-44.2 45-2.8 1.8-23 15.8-60.6 42.2-16.6 11.2-42 28.6-75.8 51.4-17.4 11.6-35 23.6-52.8 35.4-21 14.6-35.2 26.8-42.4 36.6-18 24.4-24.6 51.6-20.2 81.8 4.8 30.2 19 54.2 43.4 72.4 32.6 24.4 69.2 28.8 109.4 12.6 15.8 38.6 31.6 77.4 47.4 116.2z"
				],
				"attrs": [
					{
						"visibility": false
					}
				],
				"grid": 0,
				"tags": [
					"reyescult"
				]
			},
			"attrs": [
				{
					"visibility": false
				}
			],
			"properties": {
				"order": 6,
				"id": 1,
				"prevSize": 32,
				"code": 58885,
				"name": "reyescult"
			},
			"setIdx": 0,
			"iconIdx": 5
		},
		{
			"icon": {
				"paths": [
					"M85.4 603.2l-7.8 48.8c-0.4 2-1.6 3.6-3.4 3.6-2 0-3.2-1.6-3.6-3.6l-6.6-48.8 6.6-49.6c0.4-2 1.6-3.6 3.6-3.6s3 1.6 3.4 3.6l7.8 49.6zM121.2 603.2l-10.2 78.8c-0.4 2-2 3.4-3.8 3.4-2 0-3.6-1.6-3.6-3.8l-9-78.4c9-80.4 9-80.4 9-80.4 0-2 1.6-3.4 3.6-3.4s3.4 1.6 3.8 3.4l10.2 80.4zM156.6 603.2l-9.8 92c0 2.4-2 4.2-4.2 4.2-2.4 0-4.2-2-4.6-4.2l-8.2-92 8.2-95c0.4-2.8 2.4-4.6 4.6-4.6 2.4 0 4.2 2 4.2 4.6l9.8 95zM192.4 603.2l-9 94.6c-0.4 3.2-2.8 5-5.4 5-2.8 0-5-2-5-5l-8.2-94.6 8.2-97.8c0-3.2 2.4-5 5-5 2.8 0 5 2 5.4 5l9 97.8zM228.2 603.2l-8.2 95.4c-0.4 3.4-3.2 6.2-6.2 6.2-3.2 0-5.8-2.8-5.8-6.2l-7.8-95.4 7.8-90.8c0-3.2 2.8-5.8 5.8-5.8s5.8 2.8 6.2 5.8l8.2 90.8zM264.6 603.2l-8.2 95.4c0 3.8-3.2 7-6.6 7-4 0-6.6-3.2-7-7l-7-95.4c7-147.4 7-147.4 7-147.4 0.4-3.8 3-7 7-7 3.4 0 6.6 3.2 6.6 7l8.2 147.4zM300.4 604l-7.4 94.6c0 4.2-3.4 7.4-7.4 7.4-4.2 0-7.4-3-7.8-7.4l-6.2-94.6c6.2-181.6 6.2-181.6 6.2-181.6 0.4-4.2 3.6-7.4 7.8-7.4 3.8 0 7.4 3.2 7.4 7.4l7.4 181.6zM338.2 603.2l-7 94c-0.4 4.6-3.8 8.2-8.6 8.2-4.2 0-7.8-3.6-8.2-8.2l-6.2-94 6.2-196.4c0-4.6 3.8-8.6 8.2-8.6 4.6 0 8.2 4 8.6 8.6l7 196.4zM375.2 603.2l-6.2-203c-0.4-5-4.2-9.4-9.4-9.4-4.6 0-9 4.2-9 9.4l-5.4 203 5.4 93.6c0.4 5 4.2 9 9 9 5 0 9-4 9.4-9l6.2-93.6zM412.4 603.2l-5.8 92.8c0 5.4-4.2 9.8-9.8 9.8-5.4 0-9.4-4.2-9.8-9.8l-5.4-92.8 5.4-198c0-5.4 4.2-9.8 9.8-9.8 5.4 0 9.8 4.2 9.8 9.8l5.8 198zM450.6 603.6l-5.4 91.6c0 5.8-4.6 10.4-10.4 10.4s-10.4-4.6-10.8-10.4l-4.6-91.6 4.6-191c0.4-6.2 5-10.8 10.8-10.8s10.2 4.6 10.4 10.8l5.4 191zM488.2 603.6l-4.6-227.4c0-3.8-2-7.4-5-9.4-2-1.2-3.8-2-6.2-2s-4.2 0.8-6.2 2c-3.2 2-5 5.4-5 9.4l-0.4 2.4-3.8 224.6c0 0 0 0.4 4.2 91.6 0 0 0 0 0 0.4 0 2.4 0.8 4.6 2.4 6.6 2.4 2.8 5.4 4.2 9 4.2 3 0 5.8-1.6 7.8-3.4 2.4-2 3.6-4.6 3.6-7.8l0.4-9.4 3.8-81.8zM522.2 693.2c0 6.6-5.4 12-12 12s-12-5.4-12.4-12l-2.4-44.2-2.4-45.4 4.6-246.8v-1.2c0.4-3.4 2-7 4.6-9.4 2-1.6 4.6-2.8 7.8-2.8 2 0 4.2 0.8 5.8 2 3.6 2 5.8 5.8 6.2 10l5.4 248-5.2 89.8zM850 705.6c-305.2 0-305.6 0-305.6 0-6.6-0.8-12-5.8-12-12.8v-348.8c0-6.6 2.4-9.8 10.8-12.8 21.4-8.6 45.6-13.2 70.4-13.2 101.4 0 184.8 77.6 193.6 176.6 13.2-5.4 27.6-8.6 42.8-8.6 60.6 0 110 49.2 110 110.2 0 60.6-49.4 109.4-110 109.4z"
				],
				"attrs": [
					{
						"visibility": false
					}
				],
				"grid": 0,
				"tags": [
					"soundcloud"
				]
			},
			"attrs": [
				{
					"visibility": false
				}
			],
			"properties": {
				"order": 7,
				"id": 0,
				"prevSize": 32,
				"code": 58886,
				"name": "soundcloud"
			},
			"setIdx": 0,
			"iconIdx": 6
		}
	],
	"height": 1024,
	"metadata": {
		"name": "icons"
	},
	"preferences": {
		"fontPref": {
			"prefix": "icon-",
			"metadata": {
				"fontFamily": "icons",
				"majorVersion": 1,
				"minorVersion": 0
			},
			"showGlyphs": true,
			"metrics": {
				"emSize": 1024,
				"baseline": 6.25,
				"whitespace": 50
			},
			"resetPoint": 58880,
			"showQuickUse": true,
			"quickUsageToken": false,
			"showMetrics": true,
			"showMetadata": true,
			"showSelector": true,
			"showVersion": true
		},
		"imagePref": {
			"color": 0,
			"height": 32,
			"columns": 16,
			"margin": 16,
			"png": false,
			"sprites": true
		},
		"historySize": 100,
		"showCodes": false,
		"gridSize": 16,
		"showLiga": true,
		"showGrid": true,
		"showGlyphs": true,
		"showQuickUse": true,
		"showQuickUse2": true,
		"showSVGs": true,
		"search": ""
	}
}