<?xml version="1.0" encoding="utf-8"?>
<!-- Generator: Adobe Illustrator 18.1.0, SVG Export Plug-In . SVG Version: 6.00 Build 0)  -->
<svg version="1.1" id="Layer_1" xmlns="http://www.w3.org/2000/svg" xmlns:xlink="http://www.w3.org/1999/xlink" x="0px" y="0px"
	 viewBox="0 0 512 512" enable-background="new 0 0 512 512" xml:space="preserve">
<g>
	<path d="M453,32l-35.8,402.6L255.4,480L94.8,434.6L59,32H453z M379.7,114.3H132.3l13.2,149.5h171.3l-6.2,63.8l-55.1,14.8
		l-54.8-14.8l-3.7-39.2h-49l6.1,77.8l101.3,28h1.1V394L357,366.3L371,214H190.8l-4.2-50.7h188.6L379.7,114.3z"/>
</g>
</svg>
