<?xml version="1.0" encoding="utf-8"?>
<!-- Generator: Adobe Illustrator 18.1.0, SVG Export Plug-In . SVG Version: 6.00 Build 0)  -->
<svg version="1.1" id="Layer_1" xmlns="http://www.w3.org/2000/svg" xmlns:xlink="http://www.w3.org/1999/xlink" x="0px" y="0px"
	 viewBox="0 0 512 512" enable-background="new 0 0 512 512" xml:space="preserve">
<g>
	<path d="M42.7,301.6L38.8,326c-0.2,1-0.8,1.8-1.7,1.8c-1,0-1.6-0.8-1.8-1.8L32,301.6l3.3-24.8c0.2-1,0.8-1.8,1.8-1.8
		c1,0,1.5,0.8,1.7,1.8L42.7,301.6z M60.6,301.6L55.5,341c-0.2,1-1,1.7-1.9,1.7c-1,0-1.8-0.8-1.8-1.9l-4.5-39.2
		c4.5-40.2,4.5-40.2,4.5-40.2c0-1,0.8-1.7,1.8-1.7c1,0,1.7,0.8,1.9,1.7L60.6,301.6z M78.3,301.6l-4.9,46c0,1.2-1,2.1-2.1,2.1
		c-1.2,0-2.1-1-2.3-2.1l-4.1-46l4.1-47.5c0.2-1.4,1.2-2.3,2.3-2.3c1.2,0,2.1,1,2.1,2.3L78.3,301.6z M96.2,301.6l-4.5,47.3
		c-0.2,1.6-1.4,2.5-2.7,2.5c-1.4,0-2.5-1-2.5-2.5l-4.1-47.3l4.1-48.9c0-1.6,1.2-2.5,2.5-2.5c1.4,0,2.5,1,2.7,2.5L96.2,301.6z
		 M114.1,301.6l-4.1,47.7c-0.2,1.7-1.6,3.1-3.1,3.1c-1.6,0-2.9-1.4-2.9-3.1l-3.9-47.7l3.9-45.4c0-1.6,1.4-2.9,2.9-2.9
		c1.5,0,2.9,1.4,3.1,2.9L114.1,301.6z M132.3,301.6l-4.1,47.7c0,1.9-1.6,3.5-3.3,3.5c-2,0-3.3-1.6-3.5-3.5l-3.5-47.7
		c3.5-73.7,3.5-73.7,3.5-73.7c0.2-1.9,1.5-3.5,3.5-3.5c1.7,0,3.3,1.6,3.3,3.5L132.3,301.6z M150.2,302l-3.7,47.3
		c0,2.1-1.7,3.7-3.7,3.7c-2.1,0-3.7-1.5-3.9-3.7l-3.1-47.3c3.1-90.8,3.1-90.8,3.1-90.8c0.2-2.1,1.8-3.7,3.9-3.7
		c1.9,0,3.7,1.6,3.7,3.7L150.2,302z M169.1,301.6l-3.5,47c-0.2,2.3-1.9,4.1-4.3,4.1c-2.1,0-3.9-1.8-4.1-4.1l-3.1-47l3.1-98.2
		c0-2.3,1.9-4.3,4.1-4.3c2.3,0,4.1,2,4.3,4.3L169.1,301.6z M187.6,301.6l-3.1-101.5c-0.2-2.5-2.1-4.7-4.7-4.7
		c-2.3,0-4.5,2.1-4.5,4.7l-2.7,101.5l2.7,46.8c0.2,2.5,2.1,4.5,4.5,4.5c2.5,0,4.5-2,4.7-4.5L187.6,301.6z M206.2,301.6l-2.9,46.4
		c0,2.7-2.1,4.9-4.9,4.9c-2.7,0-4.7-2.1-4.9-4.9l-2.7-46.4l2.7-99c0-2.7,2.1-4.9,4.9-4.9c2.7,0,4.9,2.1,4.9,4.9L206.2,301.6z
		 M225.3,301.8l-2.7,45.8c0,2.9-2.3,5.2-5.2,5.2s-5.2-2.3-5.4-5.2l-2.3-45.8l2.3-95.5c0.2-3.1,2.5-5.4,5.4-5.4s5.1,2.3,5.2,5.4
		L225.3,301.8z M244.1,301.8l-2.3-113.7c0-1.9-1-3.7-2.5-4.7c-1-0.6-1.9-1-3.1-1c-1.2,0-2.1,0.4-3.1,1c-1.6,1-2.5,2.7-2.5,4.7
		l-0.2,1.2l-1.9,112.3c0,0,0,0.2,2.1,45.8c0,0,0,0,0,0.2c0,1.2,0.4,2.3,1.2,3.3c1.2,1.4,2.7,2.1,4.5,2.1c1.5,0,2.9-0.8,3.9-1.7
		c1.2-1,1.8-2.3,1.8-3.9l0.2-4.7L244.1,301.8z M261.1,346.6c0,3.3-2.7,6-6,6c-3.3,0-6-2.7-6.2-6l-1.2-22.1l-1.2-22.7l2.3-123.4v-0.6
		c0.2-1.7,1-3.5,2.3-4.7c1-0.8,2.3-1.4,3.9-1.4c1,0,2.1,0.4,2.9,1c1.8,1,2.9,2.9,3.1,5l2.7,124L261.1,346.6z M425,352.8
		c-152.6,0-152.8,0-152.8,0c-3.3-0.4-6-2.9-6-6.4V172c0-3.3,1.2-4.9,5.4-6.4c10.7-4.3,22.8-6.6,35.2-6.6c50.7,0,92.4,38.8,96.8,88.3
		c6.6-2.7,13.8-4.3,21.4-4.3c30.3,0,55,24.6,55,55.1C480,328.4,455.3,352.8,425,352.8z"/>
</g>
</svg>
